{
    "cordova-plugin-device": {
        "source": {
            "type": "registry",
            "id": "cordova-plugin-device"
        },
        "is_top_level": true,
        "variables": {}
    },
    "cordova-plugin-console": {
        "source": {
            "type": "registry",
            "id": "cordova-plugin-console"
        },
        "is_top_level": true,
        "variables": {}
    },
    "cordova-plugin-whitelist": {
        "source": {
            "type": "registry",
            "id": "cordova-plugin-whitelist@1.3.1"
        },
        "is_top_level": true,
        "variables": {}
    },
    "cordova-plugin-splashscreen": {
        "source": {
            "type": "registry",
            "id": "cordova-plugin-splashscreen@4.0.1"
        },
        "is_top_level": true,
        "variables": {}
    },
    "cordova-plugin-statusbar": {
        "source": {
            "type": "registry",
            "id": "cordova-plugin-statusbar@2.2.1"
        },
        "is_top_level": true,
        "variables": {}
    },
    "ionic-plugin-keyboard": {
        "source": {
            "type": "registry",
            "id": "ionic-plugin-keyboard"
        },
        "is_top_level": true,
        "variables": {}
    },
    "cordova-plugin-geolocation": {
        "source": {
            "type": "registry",
            "id": "cordova-plugin-geolocation"
        },
        "is_top_level": true,
        "variables": {
            "GEOLOCATION_USAGE_DESCRIPTION": " "
        }
    },
    "cordova-plugin-compat": {
        "source": {
            "type": "registry",
            "id": "cordova-plugin-compat"
        },
        "is_top_level": false,
        "variables": {}
    },
    "cordova-plugin-fastrde-checkgps": {
        "source": {
            "type": "registry",
            "id": "cordova-plugin-fastrde-checkgps@^1.0.0"
        },
        "is_top_level": true,
        "variables": {}
    },
    "cordova-plugin-datepicker": {
        "source": {
            "type": "registry",
            "id": "cordova-plugin-datepicker"
        },
        "is_top_level": true,
        "variables": {}
    },
    "cordova-background-geolocation-lt": {
        "source": {
            "type": "registry",
            "id": "https://github.com/transistorsoft/cordova-background-geolocation-lt.git"
        },
        "is_top_level": true,
        "variables": {
            "LOCATION_ALWAYS_USAGE_DESCRIPTION": "Background location-tracking is required",
            "LOCATION_WHEN_IN_USE_USAGE_DESCRIPTION": "Background location-tracking is required",
            "MOTION_USAGE_DESCRIPTION": "Using the accelerometer increases battery-efficiency by intelligently toggling location-tracking only when the device is detected to be moving",
            "LICENSE": "4bbb513c013111eae951647fd4f9e79f127fce6f7a00e9d327db9ea2a053a0df",
            "BACKGROUND_MODE_LOCATION": "<string>location</string>"
        }
    },
    "cordova-plugin-dialogs": {
        "source": {
            "type": "registry",
            "id": "cordova-plugin-dialogs"
        },
        "is_top_level": false,
        "variables": {}
    },
    "cordova-plugin-background-fetch": {
        "source": {
            "type": "registry",
            "id": "cordova-plugin-background-fetch@^4.0.0"
        },
        "is_top_level": false,
        "variables": {}
    },
    "cordova-plugin-cocoalumberjack": {
        "source": {
            "type": "registry",
            "id": "cordova-plugin-cocoalumberjack@~0.0.4"
        },
        "is_top_level": false,
        "variables": {}
    },
    "onesignal-cordova-plugin": {
        "source": {
            "type": "registry",
            "id": "onesignal-cordova-plugin@2.0.11"
        },
        "is_top_level": true,
        "variables": {}
    },
    "cordova-plugin-mauron85-background-geolocation": {
        "source": {
            "type": "registry",
            "id": "cordova-plugin-mauron85-background-geolocation"
        },
        "is_top_level": true,
        "variables": {}
    }
}