{
    "prepare_queue": {
        "installed": [],
        "uninstalled": []
    },
    "config_munge": {
        "files": {
            "config.xml": {
                "parents": {
                    "/*": [
                        {
                            "xml": "<feature name=\"Device\"><param name=\"browser-package\" value=\"Device\" /></feature>",
                            "count": 1
                        }
                    ]
                }
            }
        }
    },
    "installed_plugins": {
        "cordova-plugin-dialogs": {
            "PACKAGE_NAME": "com.intewave.bizi"
        },
        "cordova-plugin-background-fetch": {
            "PACKAGE_NAME": "com.intewave.bizi"
        },
        "cordova-background-geolocation-lt": {
            "PACKAGE_NAME": "com.intewave.bizi"
        },
        "cordova-plugin-cocoalumberjack": {
            "PACKAGE_NAME": "com.intewave.bizi"
        },
        "cordova-plugin-compat": {
            "PACKAGE_NAME": "com.intewave.bizi"
        },
        "cordova-plugin-console": {
            "PACKAGE_NAME": "com.intewave.bizi"
        },
        "cordova-plugin-datepicker": {
            "PACKAGE_NAME": "com.intewave.bizi"
        },
        "cordova-plugin-device": {
            "PACKAGE_NAME": "com.intewave.bizi"
        }
    },
    "dependent_plugins": {},
    "modules": [
        {
            "file": "plugins/cordova-plugin-dialogs/www/notification.js",
            "id": "cordova-plugin-dialogs.notification",
            "pluginId": "cordova-plugin-dialogs",
            "merges": [
                "navigator.notification"
            ]
        },
        {
            "file": "plugins/cordova-plugin-dialogs/www/browser/notification.js",
            "id": "cordova-plugin-dialogs.notification_browser",
            "pluginId": "cordova-plugin-dialogs",
            "merges": [
                "navigator.notification"
            ]
        },
        {
            "file": "plugins/cordova-plugin-background-fetch/www/BackgroundFetch.js",
            "id": "cordova-plugin-background-fetch.BackgroundFetch",
            "pluginId": "cordova-plugin-background-fetch",
            "clobbers": [
                "window.BackgroundFetch"
            ]
        },
        {
            "file": "plugins/cordova-background-geolocation-lt/www/BackgroundGeolocation.js",
            "id": "cordova-background-geolocation-lt.BackgroundGeolocation",
            "pluginId": "cordova-background-geolocation-lt",
            "clobbers": [
                "window.BackgroundGeolocation"
            ]
        },
        {
            "file": "plugins/cordova-plugin-device/www/device.js",
            "id": "cordova-plugin-device.device",
            "pluginId": "cordova-plugin-device",
            "clobbers": [
                "device"
            ]
        },
        {
            "file": "plugins/cordova-plugin-device/src/browser/DeviceProxy.js",
            "id": "cordova-plugin-device.DeviceProxy",
            "pluginId": "cordova-plugin-device",
            "runs": true
        }
    ],
    "plugin_metadata": {
        "cordova-plugin-dialogs": "1.3.3",
        "cordova-plugin-background-fetch": "4.0.2",
        "cordova-background-geolocation-lt": "2.7.3",
        "cordova-plugin-cocoalumberjack": "0.0.4",
        "cordova-plugin-compat": "1.1.0",
        "cordova-plugin-console": "1.0.5",
        "cordova-plugin-datepicker": "0.9.3",
        "cordova-plugin-device": "1.1.4"
    }
}